…
Creating an edgelist from the TAGS data
---------------------------------------

``` r
edgelist <- create_edgelist(d)

edgelist
#> # A tibble: 1,025 x 3
#>    sender          receiver        edge_type
#>    <chr>           <chr>           <chr>    
#>  1 quincee         KrisVeeVee      retweet  
#>  2 travesty328     usuCEHS         retweet  
#>  3 Ashley_Isreal   LindseyDHammond retweet  
#>  4 graphanispai    montenErick     retweet  
#>  5 reerscunatil    jclarson        retweet  
#>  6 BERANews        WileyEducation  retweet  
#>  7 RichardMessina2 JChristieLiu    retweet  
#>  8 RichardMessina2 ms_emilyhorner  retweet  
#>  9 xaliwansu       MsSamSalem      retweet  
#> 10 EduardoFortane4 Dark_knightLafc retweet  
#> # … with 1,015 more rows
…
